%!PS-Adobe-2.0
%%Title: tree-prof +RTS -hc -p
%%Creator: hp2ps (version 0.25)
%%CreationDate: Thu Sep 18 17:54 2014
%%EndComments
-90 rotate
-756.000000 72.000000 translate
/HE10 /Helvetica findfont 10 scalefont def
/HE12 /Helvetica findfont 12 scalefont def
newpath
0 0 moveto
0 432.000000 rlineto
648.000000 0 rlineto
0 -432.000000 rlineto
closepath
0.500000 setlinewidth
stroke
newpath
5.000000 407.000000 moveto
0 20.000000 rlineto
638.000000 0 rlineto
0 -20.000000 rlineto
closepath
0.500000 setlinewidth
stroke
HE12 setfont
11.000000 413.000000 moveto
(tree-prof +RTS -hc -p) show
HE12 setfont
(282,928 bytes x seconds)
dup stringwidth pop
2 div
319.000000
exch sub
413.000000 moveto
show
HE12 setfont
(Thu Sep 18 17:54 2014)
dup stringwidth pop
637.000000
exch sub
413.000000 moveto
show
45.000000 20.000000 moveto
421.133842 0 rlineto
0.500000 setlinewidth
stroke
HE10 setfont
(seconds)
dup stringwidth pop
466.133842
exch sub
5.000000 moveto
show
45.000000 20.000000 moveto
0 -4 rlineto
stroke
HE10 setfont
(0.0)
dup stringwidth pop
2 div
45.000000 exch sub
5.000000 moveto
show
164.640296 20.000000 moveto
0 -4 rlineto
stroke
HE10 setfont
(2.0)
dup stringwidth pop
2 div
164.640296 exch sub
5.000000 moveto
show
284.280592 20.000000 moveto
0 -4 rlineto
stroke
HE10 setfont
(4.0)
dup stringwidth pop
2 div
284.280592 exch sub
5.000000 moveto
show
403.920888 20.000000 moveto
0 -4 rlineto
stroke
HE10 setfont
(6.0)
dup stringwidth pop
2 div
403.920888 exch sub
5.000000 moveto
show
45.000000 20.000000 moveto
0 382.000000 rlineto
0.500000 setlinewidth
stroke
gsave
HE10 setfont
(bytes)
dup stringwidth pop
402.000000
exch sub
40.000000 exch
translate
90 rotate
0 0 moveto
show
grestore
45.000000 20.000000 moveto
-4 0 rlineto
stroke
HE10 setfont
(0k)
dup stringwidth
2 div
20.000000 exch sub
exch
40.000000 exch sub
exch
moveto
show
45.000000 64.493105 moveto
-4 0 rlineto
stroke
HE10 setfont
(5k)
dup stringwidth
2 div
64.493105 exch sub
exch
40.000000 exch sub
exch
moveto
show
45.000000 108.986209 moveto
-4 0 rlineto
stroke
HE10 setfont
(10k)
dup stringwidth
2 div
108.986209 exch sub
exch
40.000000 exch sub
exch
moveto
show
45.000000 153.479314 moveto
-4 0 rlineto
stroke
HE10 setfont
(15k)
dup stringwidth
2 div
153.479314 exch sub
exch
40.000000 exch sub
exch
moveto
show
45.000000 197.972419 moveto
-4 0 rlineto
stroke
HE10 setfont
(20k)
dup stringwidth
2 div
197.972419 exch sub
exch
40.000000 exch sub
exch
moveto
show
45.000000 242.465524 moveto
-4 0 rlineto
stroke
HE10 setfont
(25k)
dup stringwidth
2 div
242.465524 exch sub
exch
40.000000 exch sub
exch
moveto
show
45.000000 286.958628 moveto
-4 0 rlineto
stroke
HE10 setfont
(30k)
dup stringwidth
2 div
286.958628 exch sub
exch
40.000000 exch sub
exch
moveto
show
45.000000 331.451733 moveto
-4 0 rlineto
stroke
HE10 setfont
(35k)
dup stringwidth
2 div
331.451733 exch sub
exch
40.000000 exch sub
exch
moveto
show
471.133842 44.833333 moveto
0 14 rlineto
14 0 rlineto
0 -14 rlineto
closepath
gsave
0.000000 setgray
fill
grestore
stroke
HE10 setfont
490.133842 46.833333 moveto
((84)main/Main.CAF) show
471.133842 76.666667 moveto
0 14 rlineto
14 0 rlineto
0 -14 rlineto
closepath
gsave
0.200000 setgray
fill
grestore
stroke
HE10 setfont
490.133842 78.666667 moveto
(MAIN) show
471.133842 108.500000 moveto
0 14 rlineto
14 0 rlineto
0 -14 rlineto
closepath
gsave
0.600000 setgray
fill
grestore
stroke
HE10 setfont
490.133842 110.500000 moveto
((89)generateTree/smoothPe...) show
471.133842 140.333333 moveto
0 14 rlineto
14 0 rlineto
0 -14 rlineto
closepath
gsave
0.300000 setgray
fill
grestore
stroke
HE10 setfont
490.133842 142.333333 moveto
((88)pruneTree/smoothPerms...) show
471.133842 172.166667 moveto
0 14 rlineto
14 0 rlineto
0 -14 rlineto
closepath
gsave
0.900000 setgray
fill
grestore
stroke
HE10 setfont
490.133842 174.166667 moveto
((92)pruneNode/pruneTree.c...) show
471.133842 204.000000 moveto
0 14 rlineto
14 0 rlineto
0 -14 rlineto
closepath
gsave
0.400000 setgray
fill
grestore
stroke
HE10 setfont
490.133842 206.000000 moveto
((71)GHC.Conc.Signal.CAF) show
471.133842 235.833333 moveto
0 14 rlineto
14 0 rlineto
0 -14 rlineto
closepath
gsave
1.000000 setgray
fill
grestore
stroke
HE10 setfont
490.133842 237.833333 moveto
((81)GHC.IO.Handle.FD.CAF) show
471.133842 267.666667 moveto
0 14 rlineto
14 0 rlineto
0 -14 rlineto
closepath
gsave
0.700000 setgray
fill
grestore
stroke
HE10 setfont
490.133842 269.666667 moveto
((87)toList/smoothPerms/ma...) show
471.133842 299.500000 moveto
0 14 rlineto
14 0 rlineto
0 -14 rlineto
closepath
gsave
0.500000 setgray
fill
grestore
stroke
HE10 setfont
490.133842 301.500000 moveto
((76)GHC.IO.Encoding.CAF) show
471.133842 331.333333 moveto
0 14 rlineto
14 0 rlineto
0 -14 rlineto
closepath
gsave
0.800000 setgray
fill
grestore
stroke
HE10 setfont
490.133842 333.333333 moveto
((90)split/generateTree/sm...) show
471.133842 363.166667 moveto
0 14 rlineto
14 0 rlineto
0 -14 rlineto
closepath
gsave
0.000000 setgray
fill
grestore
stroke
HE10 setfont
490.133842 365.166667 moveto
((44)PINNED) show
45.000000 20.000000 moveto
45.000000 20.000000 lineto
50.982015 20.000000 lineto
56.964030 20.000000 lineto
62.946044 20.000000 lineto
69.526261 20.000000 lineto
75.508275 20.000000 lineto
81.490290 20.000000 lineto
87.472305 20.000000 lineto
93.454320 20.000000 lineto
99.436335 20.000000 lineto
104.820148 20.000000 lineto
110.802163 20.000000 lineto
116.784178 20.000000 lineto
122.766192 20.000000 lineto
129.346409 20.000000 lineto
135.328423 20.000000 lineto
141.310438 20.000000 lineto
147.292453 20.000000 lineto
153.274468 20.000000 lineto
159.256483 20.000000 lineto
164.640296 20.000000 lineto
170.622311 20.000000 lineto
176.604325 20.000000 lineto
182.586340 20.000000 lineto
188.568355 20.000000 lineto
195.148571 20.000000 lineto
201.130586 20.000000 lineto
206.514399 20.000000 lineto
211.898213 20.000000 lineto
217.880228 20.000000 lineto
224.460444 20.000000 lineto
231.040660 20.000000 lineto
237.620876 20.000000 lineto
243.602891 20.000000 lineto
249.584906 20.000000 lineto
256.165122 20.000000 lineto
261.548936 20.000000 lineto
267.530950 20.000000 lineto
273.512965 20.000000 lineto
279.494980 20.000000 lineto
285.476995 20.000000 lineto
291.459010 20.000000 lineto
297.441024 20.000000 lineto
304.021241 20.000000 lineto
309.405054 20.000000 lineto
315.387069 20.000000 lineto
320.770882 20.000000 lineto
327.351098 20.000000 lineto
332.734912 20.000000 lineto
339.315128 20.000000 lineto
344.698941 20.000000 lineto
350.680956 20.000000 lineto
356.662971 20.000000 lineto
362.644986 20.000000 lineto
368.627000 20.000000 lineto
374.609015 20.000000 lineto
380.591030 20.000000 lineto
386.573045 20.000000 lineto
392.555060 20.000000 lineto
398.537074 20.000000 lineto
404.519089 20.000000 lineto
410.501104 20.000000 lineto
416.483119 20.000000 lineto
422.465134 20.000000 lineto
427.848947 20.000000 lineto
433.830962 20.000000 lineto
439.214775 20.000000 lineto
445.794991 20.000000 lineto
451.178805 20.000000 lineto
457.160819 20.000000 lineto
463.142834 20.000000 lineto
466.133842 20.000000 lineto
466.133842 20.000000 lineto
466.133842 20.000000 lineto
463.142834 20.000000 lineto
457.160819 20.000000 lineto
451.178805 20.000000 lineto
445.794991 20.000000 lineto
439.214775 20.000000 lineto
433.830962 20.000000 lineto
427.848947 20.000000 lineto
422.465134 20.213567 lineto
416.483119 20.213567 lineto
410.501104 20.213567 lineto
404.519089 20.213567 lineto
398.537074 20.213567 lineto
392.555060 20.213567 lineto
386.573045 20.427134 lineto
380.591030 20.427134 lineto
374.609015 20.427134 lineto
368.627000 20.427134 lineto
362.644986 20.427134 lineto
356.662971 20.427134 lineto
350.680956 20.640701 lineto
344.698941 20.640701 lineto
339.315128 20.640701 lineto
332.734912 20.640701 lineto
327.351098 20.640701 lineto
320.770882 20.854268 lineto
315.387069 20.854268 lineto
309.405054 20.854268 lineto
304.021241 20.854268 lineto
297.441024 20.854268 lineto
291.459010 21.067835 lineto
285.476995 21.067835 lineto
279.494980 21.067835 lineto
273.512965 21.281401 lineto
267.530950 21.281401 lineto
261.548936 21.281401 lineto
256.165122 21.494968 lineto
249.584906 21.494968 lineto
243.602891 21.494968 lineto
237.620876 21.494968 lineto
231.040660 21.708535 lineto
224.460444 21.708535 lineto
217.880228 21.922102 lineto
211.898213 21.922102 lineto
206.514399 21.922102 lineto
201.130586 21.922102 lineto
195.148571 22.135669 lineto
188.568355 22.135669 lineto
182.586340 22.135669 lineto
176.604325 22.135669 lineto
170.622311 22.349236 lineto
164.640296 22.349236 lineto
159.256483 22.349236 lineto
153.274468 22.349236 lineto
147.292453 22.562803 lineto
141.310438 22.562803 lineto
135.328423 22.562803 lineto
129.346409 22.562803 lineto
122.766192 22.562803 lineto
116.784178 22.776370 lineto
110.802163 22.776370 lineto
104.820148 22.776370 lineto
99.436335 22.776370 lineto
93.454320 22.776370 lineto
87.472305 22.989937 lineto
81.490290 22.989937 lineto
75.508275 22.989937 lineto
69.526261 22.989937 lineto
62.946044 22.989937 lineto
56.964030 22.989937 lineto
50.982015 22.989937 lineto
45.000000 20.000000 lineto
closepath
gsave
0.000000 setgray
fill
grestore
stroke
45.000000 20.000000 moveto
45.000000 20.000000 lineto
50.982015 22.989937 lineto
56.964030 22.989937 lineto
62.946044 22.989937 lineto
69.526261 22.989937 lineto
75.508275 22.989937 lineto
81.490290 22.989937 lineto
87.472305 22.989937 lineto
93.454320 22.776370 lineto
99.436335 22.776370 lineto
104.820148 22.776370 lineto
110.802163 22.776370 lineto
116.784178 22.776370 lineto
122.766192 22.562803 lineto
129.346409 22.562803 lineto
135.328423 22.562803 lineto
141.310438 22.562803 lineto
147.292453 22.562803 lineto
153.274468 22.349236 lineto
159.256483 22.349236 lineto
164.640296 22.349236 lineto
170.622311 22.349236 lineto
176.604325 22.135669 lineto
182.586340 22.135669 lineto
188.568355 22.135669 lineto
195.148571 22.135669 lineto
201.130586 21.922102 lineto
206.514399 21.922102 lineto
211.898213 21.922102 lineto
217.880228 21.922102 lineto
224.460444 21.708535 lineto
231.040660 21.708535 lineto
237.620876 21.494968 lineto
243.602891 21.494968 lineto
249.584906 21.494968 lineto
256.165122 21.494968 lineto
261.548936 21.281401 lineto
267.530950 21.281401 lineto
273.512965 21.281401 lineto
279.494980 21.067835 lineto
285.476995 21.067835 lineto
291.459010 21.067835 lineto
297.441024 20.854268 lineto
304.021241 20.854268 lineto
309.405054 20.854268 lineto
315.387069 20.854268 lineto
320.770882 20.854268 lineto
327.351098 20.640701 lineto
332.734912 20.640701 lineto
339.315128 20.640701 lineto
344.698941 20.640701 lineto
350.680956 20.640701 lineto
356.662971 20.427134 lineto
362.644986 20.427134 lineto
368.627000 20.427134 lineto
374.609015 20.427134 lineto
380.591030 20.427134 lineto
386.573045 20.427134 lineto
392.555060 20.213567 lineto
398.537074 20.213567 lineto
404.519089 20.213567 lineto
410.501104 20.213567 lineto
416.483119 20.213567 lineto
422.465134 20.213567 lineto
427.848947 20.000000 lineto
433.830962 20.000000 lineto
439.214775 20.000000 lineto
445.794991 20.000000 lineto
451.178805 20.000000 lineto
457.160819 20.000000 lineto
463.142834 20.000000 lineto
466.133842 20.000000 lineto
466.133842 20.000000 lineto
466.133842 20.000000 lineto
463.142834 21.637346 lineto
457.160819 21.637346 lineto
451.178805 21.637346 lineto
445.794991 21.637346 lineto
439.214775 21.637346 lineto
433.830962 21.637346 lineto
427.848947 21.637346 lineto
422.465134 21.850913 lineto
416.483119 21.850913 lineto
410.501104 21.850913 lineto
404.519089 21.850913 lineto
398.537074 21.850913 lineto
392.555060 21.850913 lineto
386.573045 22.064480 lineto
380.591030 22.064480 lineto
374.609015 22.064480 lineto
368.627000 22.064480 lineto
362.644986 22.064480 lineto
356.662971 22.064480 lineto
350.680956 22.278047 lineto
344.698941 22.278047 lineto
339.315128 22.278047 lineto
332.734912 22.278047 lineto
327.351098 22.278047 lineto
320.770882 22.491614 lineto
315.387069 22.491614 lineto
309.405054 22.491614 lineto
304.021241 22.491614 lineto
297.441024 22.491614 lineto
291.459010 22.705181 lineto
285.476995 22.705181 lineto
279.494980 22.705181 lineto
273.512965 22.918748 lineto
267.530950 22.918748 lineto
261.548936 22.918748 lineto
256.165122 23.132315 lineto
249.584906 23.132315 lineto
243.602891 23.132315 lineto
237.620876 23.132315 lineto
231.040660 23.345881 lineto
224.460444 23.345881 lineto
217.880228 23.559448 lineto
211.898213 23.559448 lineto
206.514399 23.559448 lineto
201.130586 23.559448 lineto
195.148571 23.773015 lineto
188.568355 23.773015 lineto
182.586340 23.773015 lineto
176.604325 23.773015 lineto
170.622311 23.986582 lineto
164.640296 23.986582 lineto
159.256483 23.986582 lineto
153.274468 23.986582 lineto
147.292453 24.200149 lineto
141.310438 24.200149 lineto
135.328423 24.200149 lineto
129.346409 24.200149 lineto
122.766192 24.200149 lineto
116.784178 24.413716 lineto
110.802163 24.413716 lineto
104.820148 24.413716 lineto
99.436335 24.413716 lineto
93.454320 24.413716 lineto
87.472305 24.627283 lineto
81.490290 24.627283 lineto
75.508275 24.627283 lineto
69.526261 24.627283 lineto
62.946044 24.627283 lineto
56.964030 24.627283 lineto
50.982015 24.627283 lineto
45.000000 20.000000 lineto
closepath
gsave
0.200000 setgray
fill
grestore
stroke
45.000000 20.000000 moveto
45.000000 20.000000 lineto
50.982015 24.627283 lineto
56.964030 24.627283 lineto
62.946044 24.627283 lineto
69.526261 24.627283 lineto
75.508275 24.627283 lineto
81.490290 24.627283 lineto
87.472305 24.627283 lineto
93.454320 24.413716 lineto
99.436335 24.413716 lineto
104.820148 24.413716 lineto
110.802163 24.413716 lineto
116.784178 24.413716 lineto
122.766192 24.200149 lineto
129.346409 24.200149 lineto
135.328423 24.200149 lineto
141.310438 24.200149 lineto
147.292453 24.200149 lineto
153.274468 23.986582 lineto
159.256483 23.986582 lineto
164.640296 23.986582 lineto
170.622311 23.986582 lineto
176.604325 23.773015 lineto
182.586340 23.773015 lineto
188.568355 23.773015 lineto
195.148571 23.773015 lineto
201.130586 23.559448 lineto
206.514399 23.559448 lineto
211.898213 23.559448 lineto
217.880228 23.559448 lineto
224.460444 23.345881 lineto
231.040660 23.345881 lineto
237.620876 23.132315 lineto
243.602891 23.132315 lineto
249.584906 23.132315 lineto
256.165122 23.132315 lineto
261.548936 22.918748 lineto
267.530950 22.918748 lineto
273.512965 22.918748 lineto
279.494980 22.705181 lineto
285.476995 22.705181 lineto
291.459010 22.705181 lineto
297.441024 22.491614 lineto
304.021241 22.491614 lineto
309.405054 22.491614 lineto
315.387069 22.491614 lineto
320.770882 22.491614 lineto
327.351098 22.278047 lineto
332.734912 22.278047 lineto
339.315128 22.278047 lineto
344.698941 22.278047 lineto
350.680956 22.278047 lineto
356.662971 22.064480 lineto
362.644986 22.064480 lineto
368.627000 22.064480 lineto
374.609015 22.064480 lineto
380.591030 22.064480 lineto
386.573045 22.064480 lineto
392.555060 21.850913 lineto
398.537074 21.850913 lineto
404.519089 21.850913 lineto
410.501104 21.850913 lineto
416.483119 21.850913 lineto
422.465134 21.850913 lineto
427.848947 21.637346 lineto
433.830962 21.637346 lineto
439.214775 21.637346 lineto
445.794991 21.637346 lineto
451.178805 21.637346 lineto
457.160819 21.637346 lineto
463.142834 21.637346 lineto
466.133842 20.000000 lineto
466.133842 20.000000 lineto
466.133842 20.000000 lineto
463.142834 24.840850 lineto
457.160819 23.915393 lineto
451.178805 24.128960 lineto
445.794991 23.915393 lineto
439.214775 24.840850 lineto
433.830962 24.128960 lineto
427.848947 24.342527 lineto
422.465134 23.915393 lineto
416.483119 25.054417 lineto
410.501104 24.128960 lineto
404.519089 24.983228 lineto
398.537074 23.915393 lineto
392.555060 24.413716 lineto
386.573045 24.983228 lineto
380.591030 25.054417 lineto
374.609015 24.769661 lineto
368.627000 24.342527 lineto
362.644986 24.983228 lineto
356.662971 24.128960 lineto
350.680956 25.196795 lineto
344.698941 24.840850 lineto
339.315128 24.627283 lineto
332.734912 24.342527 lineto
327.351098 24.983228 lineto
320.770882 25.908684 lineto
315.387069 24.769661 lineto
309.405054 25.196795 lineto
304.021241 24.840850 lineto
297.441024 24.769661 lineto
291.459010 25.410362 lineto
285.476995 24.769661 lineto
279.494980 25.196795 lineto
273.512965 25.623928 lineto
267.530950 25.410362 lineto
261.548936 25.410362 lineto
256.165122 26.335818 lineto
249.584906 26.335818 lineto
243.602891 26.335818 lineto
237.620876 26.051062 lineto
231.040660 26.051062 lineto
224.460444 24.983228 lineto
217.880228 25.410362 lineto
211.898213 25.481551 lineto
206.514399 25.837495 lineto
201.130586 26.264629 lineto
195.148571 25.837495 lineto
188.568355 25.837495 lineto
182.586340 26.478196 lineto
176.604325 26.478196 lineto
170.622311 26.691763 lineto
164.640296 26.051062 lineto
159.256483 27.190086 lineto
153.274468 26.976519 lineto
147.292453 26.691763 lineto
141.310438 27.118897 lineto
135.328423 26.905330 lineto
129.346409 27.118897 lineto
122.766192 26.905330 lineto
116.784178 27.332464 lineto
110.802163 26.478196 lineto
104.820148 26.976519 lineto
99.436335 27.190086 lineto
93.454320 27.332464 lineto
87.472305 26.264629 lineto
81.490290 27.546031 lineto
75.508275 27.118897 lineto
69.526261 27.617220 lineto
62.946044 27.118897 lineto
56.964030 27.118897 lineto
50.982015 27.332464 lineto
45.000000 20.000000 lineto
closepath
gsave
0.600000 setgray
fill
grestore
stroke
45.000000 20.000000 moveto
45.000000 20.000000 lineto
50.982015 27.332464 lineto
56.964030 27.118897 lineto
62.946044 27.118897 lineto
69.526261 27.617220 lineto
75.508275 27.118897 lineto
81.490290 27.546031 lineto
87.472305 26.264629 lineto
93.454320 27.332464 lineto
99.436335 27.190086 lineto
104.820148 26.976519 lineto
110.802163 26.478196 lineto
116.784178 27.332464 lineto
122.766192 26.905330 lineto
129.346409 27.118897 lineto
135.328423 26.905330 lineto
141.310438 27.118897 lineto
147.292453 26.691763 lineto
153.274468 26.976519 lineto
159.256483 27.190086 lineto
164.640296 26.051062 lineto
170.622311 26.691763 lineto
176.604325 26.478196 lineto
182.586340 26.478196 lineto
188.568355 25.837495 lineto
195.148571 25.837495 lineto
201.130586 26.264629 lineto
206.514399 25.837495 lineto
211.898213 25.481551 lineto
217.880228 25.410362 lineto
224.460444 24.983228 lineto
231.040660 26.051062 lineto
237.620876 26.051062 lineto
243.602891 26.335818 lineto
249.584906 26.335818 lineto
256.165122 26.335818 lineto
261.548936 25.410362 lineto
267.530950 25.410362 lineto
273.512965 25.623928 lineto
279.494980 25.196795 lineto
285.476995 24.769661 lineto
291.459010 25.410362 lineto
297.441024 24.769661 lineto
304.021241 24.840850 lineto
309.405054 25.196795 lineto
315.387069 24.769661 lineto
320.770882 25.908684 lineto
327.351098 24.983228 lineto
332.734912 24.342527 lineto
339.315128 24.627283 lineto
344.698941 24.840850 lineto
350.680956 25.196795 lineto
356.662971 24.128960 lineto
362.644986 24.983228 lineto
368.627000 24.342527 lineto
374.609015 24.769661 lineto
380.591030 25.054417 lineto
386.573045 24.983228 lineto
392.555060 24.413716 lineto
398.537074 23.915393 lineto
404.519089 24.983228 lineto
410.501104 24.128960 lineto
416.483119 25.054417 lineto
422.465134 23.915393 lineto
427.848947 24.342527 lineto
433.830962 24.128960 lineto
439.214775 24.840850 lineto
445.794991 23.915393 lineto
451.178805 24.128960 lineto
457.160819 23.915393 lineto
463.142834 24.840850 lineto
466.133842 20.000000 lineto
466.133842 20.000000 lineto
466.133842 20.000000 lineto
463.142834 30.820723 lineto
457.160819 28.471487 lineto
451.178805 29.112188 lineto
445.794991 28.471487 lineto
439.214775 30.535967 lineto
433.830962 29.112188 lineto
427.848947 29.752889 lineto
422.465134 27.901975 lineto
416.483119 30.749534 lineto
410.501104 28.685054 lineto
404.519089 30.535967 lineto
398.537074 28.044353 lineto
392.555060 29.112188 lineto
386.573045 30.820723 lineto
380.591030 30.607156 lineto
374.609015 30.180022 lineto
368.627000 28.898621 lineto
362.644986 30.820723 lineto
356.662971 28.257920 lineto
350.680956 30.749534 lineto
344.698941 28.969810 lineto
339.315128 28.898621 lineto
332.734912 28.471487 lineto
327.351098 30.251211 lineto
320.770882 31.746180 lineto
315.387069 29.325755 lineto
309.405054 30.464778 lineto
304.021241 29.112188 lineto
297.441024 29.325755 lineto
291.459010 30.108833 lineto
285.476995 28.613865 lineto
279.494980 30.037644 lineto
273.512965 31.034290 lineto
267.530950 30.393589 lineto
261.548936 30.251211 lineto
256.165122 32.742825 lineto
249.584906 32.315691 lineto
243.602891 31.746180 lineto
237.620876 31.888558 lineto
231.040660 31.461424 lineto
224.460444 28.115542 lineto
217.880228 28.969810 lineto
211.898213 28.898621 lineto
206.514399 30.251211 lineto
201.130586 31.532613 lineto
195.148571 29.966455 lineto
188.568355 29.824078 lineto
182.586340 31.888558 lineto
176.604325 31.746180 lineto
170.622311 31.959747 lineto
164.640296 30.037644 lineto
159.256483 32.458069 lineto
153.274468 32.529258 lineto
147.292453 31.532613 lineto
141.310438 32.956392 lineto
135.328423 32.173313 lineto
129.346409 32.956392 lineto
122.766192 32.173313 lineto
116.784178 33.027581 lineto
110.802163 30.607156 lineto
104.820148 31.390235 lineto
99.436335 31.603802 lineto
93.454320 33.169959 lineto
87.472305 29.396944 lineto
81.490290 33.241148 lineto
75.508275 31.959747 lineto
69.526261 32.458069 lineto
62.946044 31.959747 lineto
56.964030 32.102124 lineto
50.982015 32.742825 lineto
45.000000 20.000000 lineto
closepath
gsave
0.300000 setgray
fill
grestore
stroke
45.000000 20.000000 moveto
45.000000 20.000000 lineto
50.982015 32.742825 lineto
56.964030 32.102124 lineto
62.946044 31.959747 lineto
69.526261 32.458069 lineto
75.508275 31.959747 lineto
81.490290 33.241148 lineto
87.472305 29.396944 lineto
93.454320 33.169959 lineto
99.436335 31.603802 lineto
104.820148 31.390235 lineto
110.802163 30.607156 lineto
116.784178 33.027581 lineto
122.766192 32.173313 lineto
129.346409 32.956392 lineto
135.328423 32.173313 lineto
141.310438 32.956392 lineto
147.292453 31.532613 lineto
153.274468 32.529258 lineto
159.256483 32.458069 lineto
164.640296 30.037644 lineto
170.622311 31.959747 lineto
176.604325 31.746180 lineto
182.586340 31.888558 lineto
188.568355 29.824078 lineto
195.148571 29.966455 lineto
201.130586 31.532613 lineto
206.514399 30.251211 lineto
211.898213 28.898621 lineto
217.880228 28.969810 lineto
224.460444 28.115542 lineto
231.040660 31.461424 lineto
237.620876 31.888558 lineto
243.602891 31.746180 lineto
249.584906 32.315691 lineto
256.165122 32.742825 lineto
261.548936 30.251211 lineto
267.530950 30.393589 lineto
273.512965 31.034290 lineto
279.494980 30.037644 lineto
285.476995 28.613865 lineto
291.459010 30.108833 lineto
297.441024 29.325755 lineto
304.021241 29.112188 lineto
309.405054 30.464778 lineto
315.387069 29.325755 lineto
320.770882 31.746180 lineto
327.351098 30.251211 lineto
332.734912 28.471487 lineto
339.315128 28.898621 lineto
344.698941 28.969810 lineto
350.680956 30.749534 lineto
356.662971 28.257920 lineto
362.644986 30.820723 lineto
368.627000 28.898621 lineto
374.609015 30.180022 lineto
380.591030 30.607156 lineto
386.573045 30.820723 lineto
392.555060 29.112188 lineto
398.537074 28.044353 lineto
404.519089 30.535967 lineto
410.501104 28.685054 lineto
416.483119 30.749534 lineto
422.465134 27.901975 lineto
427.848947 29.752889 lineto
433.830962 29.112188 lineto
439.214775 30.535967 lineto
445.794991 28.471487 lineto
451.178805 29.112188 lineto
457.160819 28.471487 lineto
463.142834 30.820723 lineto
466.133842 20.000000 lineto
466.133842 20.000000 lineto
466.133842 20.000000 lineto
463.142834 38.081998 lineto
457.160819 33.312337 lineto
451.178805 34.451360 lineto
445.794991 33.312337 lineto
439.214775 36.515840 lineto
433.830962 34.451360 lineto
427.848947 35.590384 lineto
422.465134 32.386880 lineto
416.483119 36.729407 lineto
410.501104 33.525904 lineto
404.519089 36.515840 lineto
398.537074 32.386880 lineto
392.555060 34.451360 lineto
386.573045 37.156541 lineto
380.591030 37.370108 lineto
374.609015 36.017518 lineto
368.627000 33.739471 lineto
362.644986 37.156541 lineto
356.662971 32.600447 lineto
350.680956 36.729407 lineto
344.698941 33.312337 lineto
339.315128 34.024227 lineto
332.734912 32.814014 lineto
327.351098 36.231085 lineto
320.770882 38.081998 lineto
315.387069 34.166605 lineto
309.405054 36.444652 lineto
304.021241 34.237794 lineto
297.441024 34.166605 lineto
291.459010 35.092061 lineto
285.476995 32.600447 lineto
279.494980 35.519195 lineto
273.512965 36.871785 lineto
267.530950 35.732762 lineto
261.548936 35.732762 lineto
256.165122 39.719344 lineto
249.584906 39.434588 lineto
243.602891 37.939620 lineto
237.620876 38.224376 lineto
231.040660 37.298919 lineto
224.460444 31.603802 lineto
217.880228 32.956392 lineto
211.898213 32.742825 lineto
206.514399 35.234439 lineto
201.130586 37.512486 lineto
195.148571 34.308982 lineto
188.568355 34.308982 lineto
182.586340 37.726053 lineto
176.604325 37.726053 lineto
170.622311 37.939620 lineto
164.640296 34.522549 lineto
159.256483 38.793887 lineto
153.274468 39.292210 lineto
147.292453 37.014163 lineto
141.310438 39.292210 lineto
135.328423 38.153187 lineto
129.346409 39.292210 lineto
122.766192 38.153187 lineto
116.784178 39.505777 lineto
110.802163 34.949683 lineto
104.820148 35.875140 lineto
99.436335 36.587029 lineto
93.454320 39.505777 lineto
87.472305 32.885203 lineto
81.490290 39.719344 lineto
75.508275 37.441297 lineto
69.526261 38.295565 lineto
62.946044 37.441297 lineto
56.964030 37.441297 lineto
50.982015 38.580321 lineto
45.000000 20.000000 lineto
closepath
gsave
0.900000 setgray
fill
grestore
stroke
45.000000 20.000000 moveto
45.000000 20.000000 lineto
50.982015 38.580321 lineto
56.964030 37.441297 lineto
62.946044 37.441297 lineto
69.526261 38.295565 lineto
75.508275 37.441297 lineto
81.490290 39.719344 lineto
87.472305 32.885203 lineto
93.454320 39.505777 lineto
99.436335 36.587029 lineto
104.820148 35.875140 lineto
110.802163 34.949683 lineto
116.784178 39.505777 lineto
122.766192 38.153187 lineto
129.346409 39.292210 lineto
135.328423 38.153187 lineto
141.310438 39.292210 lineto
147.292453 37.014163 lineto
153.274468 39.292210 lineto
159.256483 38.793887 lineto
164.640296 34.522549 lineto
170.622311 37.939620 lineto
176.604325 37.726053 lineto
182.586340 37.726053 lineto
188.568355 34.308982 lineto
195.148571 34.308982 lineto
201.130586 37.512486 lineto
206.514399 35.234439 lineto
211.898213 32.742825 lineto
217.880228 32.956392 lineto
224.460444 31.603802 lineto
231.040660 37.298919 lineto
237.620876 38.224376 lineto
243.602891 37.939620 lineto
249.584906 39.434588 lineto
256.165122 39.719344 lineto
261.548936 35.732762 lineto
267.530950 35.732762 lineto
273.512965 36.871785 lineto
279.494980 35.519195 lineto
285.476995 32.600447 lineto
291.459010 35.092061 lineto
297.441024 34.166605 lineto
304.021241 34.237794 lineto
309.405054 36.444652 lineto
315.387069 34.166605 lineto
320.770882 38.081998 lineto
327.351098 36.231085 lineto
332.734912 32.814014 lineto
339.315128 34.024227 lineto
344.698941 33.312337 lineto
350.680956 36.729407 lineto
356.662971 32.600447 lineto
362.644986 37.156541 lineto
368.627000 33.739471 lineto
374.609015 36.017518 lineto
380.591030 37.370108 lineto
386.573045 37.156541 lineto
392.555060 34.451360 lineto
398.537074 32.386880 lineto
404.519089 36.515840 lineto
410.501104 33.525904 lineto
416.483119 36.729407 lineto
422.465134 32.386880 lineto
427.848947 35.590384 lineto
433.830962 34.451360 lineto
439.214775 36.515840 lineto
445.794991 33.312337 lineto
451.178805 34.451360 lineto
457.160819 33.312337 lineto
463.142834 38.081998 lineto
466.133842 20.000000 lineto
466.133842 20.000000 lineto
466.133842 20.000000 lineto
463.142834 43.777115 lineto
457.160819 39.007454 lineto
451.178805 40.146478 lineto
445.794991 39.007454 lineto
439.214775 42.210958 lineto
433.830962 40.146478 lineto
427.848947 41.285501 lineto
422.465134 38.081998 lineto
416.483119 42.424525 lineto
410.501104 39.221021 lineto
404.519089 42.210958 lineto
398.537074 38.081998 lineto
392.555060 40.146478 lineto
386.573045 42.851659 lineto
380.591030 43.065225 lineto
374.609015 41.712635 lineto
368.627000 39.434588 lineto
362.644986 42.851659 lineto
356.662971 38.295565 lineto
350.680956 42.424525 lineto
344.698941 39.007454 lineto
339.315128 39.719344 lineto
332.734912 38.509132 lineto
327.351098 41.926202 lineto
320.770882 43.777115 lineto
315.387069 39.861722 lineto
309.405054 42.139769 lineto
304.021241 39.932911 lineto
297.441024 39.861722 lineto
291.459010 40.787179 lineto
285.476995 38.295565 lineto
279.494980 41.214312 lineto
273.512965 42.566903 lineto
267.530950 41.427879 lineto
261.548936 41.427879 lineto
256.165122 45.414461 lineto
249.584906 45.129706 lineto
243.602891 43.634737 lineto
237.620876 43.919493 lineto
231.040660 42.994037 lineto
224.460444 37.298919 lineto
217.880228 38.651510 lineto
211.898213 38.437943 lineto
206.514399 40.929556 lineto
201.130586 43.207603 lineto
195.148571 40.004100 lineto
188.568355 40.004100 lineto
182.586340 43.421170 lineto
176.604325 43.421170 lineto
170.622311 43.634737 lineto
164.640296 40.217667 lineto
159.256483 44.489005 lineto
153.274468 44.987328 lineto
147.292453 42.709281 lineto
141.310438 44.987328 lineto
135.328423 43.848304 lineto
129.346409 44.987328 lineto
122.766192 43.848304 lineto
116.784178 45.200895 lineto
110.802163 40.644801 lineto
104.820148 41.570257 lineto
99.436335 42.282147 lineto
93.454320 45.200895 lineto
87.472305 38.580321 lineto
81.490290 45.414461 lineto
75.508275 43.136414 lineto
69.526261 43.990682 lineto
62.946044 43.136414 lineto
56.964030 43.136414 lineto
50.982015 44.275438 lineto
45.000000 20.000000 lineto
closepath
gsave
0.400000 setgray
fill
grestore
stroke
45.000000 20.000000 moveto
45.000000 20.000000 lineto
50.982015 44.275438 lineto
56.964030 43.136414 lineto
62.946044 43.136414 lineto
69.526261 43.990682 lineto
75.508275 43.136414 lineto
81.490290 45.414461 lineto
87.472305 38.580321 lineto
93.454320 45.200895 lineto
99.436335 42.282147 lineto
104.820148 41.570257 lineto
110.802163 40.644801 lineto
116.784178 45.200895 lineto
122.766192 43.848304 lineto
129.346409 44.987328 lineto
135.328423 43.848304 lineto
141.310438 44.987328 lineto
147.292453 42.709281 lineto
153.274468 44.987328 lineto
159.256483 44.489005 lineto
164.640296 40.217667 lineto
170.622311 43.634737 lineto
176.604325 43.421170 lineto
182.586340 43.421170 lineto
188.568355 40.004100 lineto
195.148571 40.004100 lineto
201.130586 43.207603 lineto
206.514399 40.929556 lineto
211.898213 38.437943 lineto
217.880228 38.651510 lineto
224.460444 37.298919 lineto
231.040660 42.994037 lineto
237.620876 43.919493 lineto
243.602891 43.634737 lineto
249.584906 45.129706 lineto
256.165122 45.414461 lineto
261.548936 41.427879 lineto
267.530950 41.427879 lineto
273.512965 42.566903 lineto
279.494980 41.214312 lineto
285.476995 38.295565 lineto
291.459010 40.787179 lineto
297.441024 39.861722 lineto
304.021241 39.932911 lineto
309.405054 42.139769 lineto
315.387069 39.861722 lineto
320.770882 43.777115 lineto
327.351098 41.926202 lineto
332.734912 38.509132 lineto
339.315128 39.719344 lineto
344.698941 39.007454 lineto
350.680956 42.424525 lineto
356.662971 38.295565 lineto
362.644986 42.851659 lineto
368.627000 39.434588 lineto
374.609015 41.712635 lineto
380.591030 43.065225 lineto
386.573045 42.851659 lineto
392.555060 40.146478 lineto
398.537074 38.081998 lineto
404.519089 42.210958 lineto
410.501104 39.221021 lineto
416.483119 42.424525 lineto
422.465134 38.081998 lineto
427.848947 41.285501 lineto
433.830962 40.146478 lineto
439.214775 42.210958 lineto
445.794991 39.007454 lineto
451.178805 40.146478 lineto
457.160819 39.007454 lineto
463.142834 43.777115 lineto
466.133842 20.000000 lineto
466.133842 20.000000 lineto
466.133842 20.000000 lineto
463.142834 50.112933 lineto
457.160819 45.343272 lineto
451.178805 46.482296 lineto
445.794991 45.343272 lineto
439.214775 48.546776 lineto
433.830962 46.482296 lineto
427.848947 47.621319 lineto
422.465134 44.417816 lineto
416.483119 48.760343 lineto
410.501104 45.556839 lineto
404.519089 48.546776 lineto
398.537074 44.417816 lineto
392.555060 46.482296 lineto
386.573045 49.187477 lineto
380.591030 49.401044 lineto
374.609015 48.048453 lineto
368.627000 45.770406 lineto
362.644986 49.187477 lineto
356.662971 44.631383 lineto
350.680956 48.760343 lineto
344.698941 45.343272 lineto
339.315128 46.055162 lineto
332.734912 44.844950 lineto
327.351098 48.262020 lineto
320.770882 50.112933 lineto
315.387069 46.197540 lineto
309.405054 48.475587 lineto
304.021241 46.268729 lineto
297.441024 46.197540 lineto
291.459010 47.122997 lineto
285.476995 44.631383 lineto
279.494980 47.550130 lineto
273.512965 48.902721 lineto
267.530950 47.763697 lineto
261.548936 47.763697 lineto
256.165122 51.750280 lineto
249.584906 51.465524 lineto
243.602891 49.970555 lineto
237.620876 50.255311 lineto
231.040660 49.329855 lineto
224.460444 43.634737 lineto
217.880228 44.987328 lineto
211.898213 44.773761 lineto
206.514399 47.265375 lineto
201.130586 49.543422 lineto
195.148571 46.339918 lineto
188.568355 46.339918 lineto
182.586340 49.756988 lineto
176.604325 49.756988 lineto
170.622311 49.970555 lineto
164.640296 46.553485 lineto
159.256483 50.824823 lineto
153.274468 51.323146 lineto
147.292453 49.045099 lineto
141.310438 51.323146 lineto
135.328423 50.184122 lineto
129.346409 51.323146 lineto
122.766192 50.184122 lineto
116.784178 51.536713 lineto
110.802163 46.980619 lineto
104.820148 47.906075 lineto
99.436335 48.617965 lineto
93.454320 51.536713 lineto
87.472305 44.916139 lineto
81.490290 51.750280 lineto
75.508275 49.472233 lineto
69.526261 50.326500 lineto
62.946044 49.472233 lineto
56.964030 49.472233 lineto
50.982015 50.611256 lineto
45.000000 20.000000 lineto
closepath
gsave
1.000000 setgray
fill
grestore
stroke
45.000000 20.000000 moveto
45.000000 20.000000 lineto
50.982015 50.611256 lineto
56.964030 49.472233 lineto
62.946044 49.472233 lineto
69.526261 50.326500 lineto
75.508275 49.472233 lineto
81.490290 51.750280 lineto
87.472305 44.916139 lineto
93.454320 51.536713 lineto
99.436335 48.617965 lineto
104.820148 47.906075 lineto
110.802163 46.980619 lineto
116.784178 51.536713 lineto
122.766192 50.184122 lineto
129.346409 51.323146 lineto
135.328423 50.184122 lineto
141.310438 51.323146 lineto
147.292453 49.045099 lineto
153.274468 51.323146 lineto
159.256483 50.824823 lineto
164.640296 46.553485 lineto
170.622311 49.970555 lineto
176.604325 49.756988 lineto
182.586340 49.756988 lineto
188.568355 46.339918 lineto
195.148571 46.339918 lineto
201.130586 49.543422 lineto
206.514399 47.265375 lineto
211.898213 44.773761 lineto
217.880228 44.987328 lineto
224.460444 43.634737 lineto
231.040660 49.329855 lineto
237.620876 50.255311 lineto
243.602891 49.970555 lineto
249.584906 51.465524 lineto
256.165122 51.750280 lineto
261.548936 47.763697 lineto
267.530950 47.763697 lineto
273.512965 48.902721 lineto
279.494980 47.550130 lineto
285.476995 44.631383 lineto
291.459010 47.122997 lineto
297.441024 46.197540 lineto
304.021241 46.268729 lineto
309.405054 48.475587 lineto
315.387069 46.197540 lineto
320.770882 50.112933 lineto
327.351098 48.262020 lineto
332.734912 44.844950 lineto
339.315128 46.055162 lineto
344.698941 45.343272 lineto
350.680956 48.760343 lineto
356.662971 44.631383 lineto
362.644986 49.187477 lineto
368.627000 45.770406 lineto
374.609015 48.048453 lineto
380.591030 49.401044 lineto
386.573045 49.187477 lineto
392.555060 46.482296 lineto
398.537074 44.417816 lineto
404.519089 48.546776 lineto
410.501104 45.556839 lineto
416.483119 48.760343 lineto
422.465134 44.417816 lineto
427.848947 47.621319 lineto
433.830962 46.482296 lineto
439.214775 48.546776 lineto
445.794991 45.343272 lineto
451.178805 46.482296 lineto
457.160819 45.343272 lineto
463.142834 50.112933 lineto
466.133842 20.000000 lineto
466.133842 20.000000 lineto
466.133842 20.000000 lineto
463.142834 57.516586 lineto
457.160819 51.180768 lineto
451.178805 53.031681 lineto
445.794991 51.750280 lineto
439.214775 55.523295 lineto
433.830962 53.885949 lineto
427.848947 55.167350 lineto
422.465134 49.970555 lineto
416.483119 55.736862 lineto
410.501104 51.536713 lineto
404.519089 55.665673 lineto
398.537074 50.112933 lineto
392.555060 52.889303 lineto
386.573045 56.163996 lineto
380.591030 56.377562 lineto
374.609015 55.452106 lineto
368.627000 51.750280 lineto
362.644986 56.875885 lineto
356.662971 50.041744 lineto
350.680956 55.594484 lineto
344.698941 50.611256 lineto
339.315128 51.750280 lineto
332.734912 50.682445 lineto
327.351098 55.380917 lineto
320.770882 57.801342 lineto
315.387069 52.319791 lineto
309.405054 55.452106 lineto
304.021241 52.390980 lineto
297.441024 52.319791 lineto
291.459010 53.530004 lineto
285.476995 49.187477 lineto
279.494980 53.814760 lineto
273.512965 56.591129 lineto
267.530950 54.313082 lineto
261.548936 53.885949 lineto
256.165122 59.723444 lineto
249.584906 59.438688 lineto
243.602891 57.089452 lineto
237.620876 57.943720 lineto
231.040660 56.163996 lineto
224.460444 48.190831 lineto
217.880228 49.970555 lineto
211.898213 49.329855 lineto
206.514399 53.530004 lineto
201.130586 56.662318 lineto
195.148571 51.750280 lineto
188.568355 51.750280 lineto
182.586340 57.445397 lineto
176.604325 56.733507 lineto
170.622311 57.231830 lineto
164.640296 52.533358 lineto
159.256483 57.516586 lineto
153.274468 58.299665 lineto
147.292453 55.309728 lineto
141.310438 59.011554 lineto
135.328423 56.448751 lineto
129.346409 59.011554 lineto
122.766192 56.875885 lineto
116.784178 58.940365 lineto
110.802163 52.960492 lineto
104.820148 53.031681 lineto
99.436335 54.313082 lineto
93.454320 59.225121 lineto
87.472305 49.187477 lineto
81.490290 59.296310 lineto
75.508275 56.591129 lineto
69.526261 56.591129 lineto
62.946044 56.021618 lineto
56.964030 56.163996 lineto
50.982015 57.730153 lineto
45.000000 20.000000 lineto
closepath
gsave
0.700000 setgray
fill
grestore
stroke
45.000000 20.000000 moveto
45.000000 20.000000 lineto
50.982015 57.730153 lineto
56.964030 56.163996 lineto
62.946044 56.021618 lineto
69.526261 56.591129 lineto
75.508275 56.591129 lineto
81.490290 59.296310 lineto
87.472305 49.187477 lineto
93.454320 59.225121 lineto
99.436335 54.313082 lineto
104.820148 53.031681 lineto
110.802163 52.960492 lineto
116.784178 58.940365 lineto
122.766192 56.875885 lineto
129.346409 59.011554 lineto
135.328423 56.448751 lineto
141.310438 59.011554 lineto
147.292453 55.309728 lineto
153.274468 58.299665 lineto
159.256483 57.516586 lineto
164.640296 52.533358 lineto
170.622311 57.231830 lineto
176.604325 56.733507 lineto
182.586340 57.445397 lineto
188.568355 51.750280 lineto
195.148571 51.750280 lineto
201.130586 56.662318 lineto
206.514399 53.530004 lineto
211.898213 49.329855 lineto
217.880228 49.970555 lineto
224.460444 48.190831 lineto
231.040660 56.163996 lineto
237.620876 57.943720 lineto
243.602891 57.089452 lineto
249.584906 59.438688 lineto
256.165122 59.723444 lineto
261.548936 53.885949 lineto
267.530950 54.313082 lineto
273.512965 56.591129 lineto
279.494980 53.814760 lineto
285.476995 49.187477 lineto
291.459010 53.530004 lineto
297.441024 52.319791 lineto
304.021241 52.390980 lineto
309.405054 55.452106 lineto
315.387069 52.319791 lineto
320.770882 57.801342 lineto
327.351098 55.380917 lineto
332.734912 50.682445 lineto
339.315128 51.750280 lineto
344.698941 50.611256 lineto
350.680956 55.594484 lineto
356.662971 50.041744 lineto
362.644986 56.875885 lineto
368.627000 51.750280 lineto
374.609015 55.452106 lineto
380.591030 56.377562 lineto
386.573045 56.163996 lineto
392.555060 52.889303 lineto
398.537074 50.112933 lineto
404.519089 55.665673 lineto
410.501104 51.536713 lineto
416.483119 55.736862 lineto
422.465134 49.970555 lineto
427.848947 55.167350 lineto
433.830962 53.885949 lineto
439.214775 55.523295 lineto
445.794991 51.750280 lineto
451.178805 53.031681 lineto
457.160819 51.180768 lineto
463.142834 57.516586 lineto
466.133842 20.000000 lineto
466.133842 20.000000 lineto
466.133842 20.000000 lineto
463.142834 67.269474 lineto
457.160819 60.933656 lineto
451.178805 62.784570 lineto
445.794991 61.503168 lineto
439.214775 65.276183 lineto
433.830962 63.638837 lineto
427.848947 64.920239 lineto
422.465134 59.723444 lineto
416.483119 65.489750 lineto
410.501104 61.289601 lineto
404.519089 65.418561 lineto
398.537074 59.865822 lineto
392.555060 62.642192 lineto
386.573045 65.916884 lineto
380.591030 66.130451 lineto
374.609015 65.204994 lineto
368.627000 61.503168 lineto
362.644986 66.628774 lineto
356.662971 59.794633 lineto
350.680956 65.347372 lineto
344.698941 60.364145 lineto
339.315128 61.503168 lineto
332.734912 60.435334 lineto
327.351098 65.133805 lineto
320.770882 67.554230 lineto
315.387069 62.072680 lineto
309.405054 65.204994 lineto
304.021241 62.143869 lineto
297.441024 62.072680 lineto
291.459010 63.282892 lineto
285.476995 58.940365 lineto
279.494980 63.567648 lineto
273.512965 66.344018 lineto
267.530950 64.065971 lineto
261.548936 63.638837 lineto
256.165122 69.476332 lineto
249.584906 69.191577 lineto
243.602891 66.842341 lineto
237.620876 67.696608 lineto
231.040660 65.916884 lineto
224.460444 57.943720 lineto
217.880228 59.723444 lineto
211.898213 59.082743 lineto
206.514399 63.282892 lineto
201.130586 66.415207 lineto
195.148571 61.503168 lineto
188.568355 61.503168 lineto
182.586340 67.198286 lineto
176.604325 66.486396 lineto
170.622311 66.984719 lineto
164.640296 62.286247 lineto
159.256483 67.269474 lineto
153.274468 68.052553 lineto
147.292453 65.062616 lineto
141.310438 68.764443 lineto
135.328423 66.201640 lineto
129.346409 68.764443 lineto
122.766192 66.628774 lineto
116.784178 68.693254 lineto
110.802163 62.713381 lineto
104.820148 62.784570 lineto
99.436335 64.065971 lineto
93.454320 68.978010 lineto
87.472305 58.940365 lineto
81.490290 69.049199 lineto
75.508275 66.344018 lineto
69.526261 66.344018 lineto
62.946044 65.774506 lineto
56.964030 65.916884 lineto
50.982015 67.483041 lineto
45.000000 20.000000 lineto
closepath
gsave
0.500000 setgray
fill
grestore
stroke
45.000000 20.000000 moveto
45.000000 20.000000 lineto
50.982015 67.483041 lineto
56.964030 65.916884 lineto
62.946044 65.774506 lineto
69.526261 66.344018 lineto
75.508275 66.344018 lineto
81.490290 69.049199 lineto
87.472305 58.940365 lineto
93.454320 68.978010 lineto
99.436335 64.065971 lineto
104.820148 62.784570 lineto
110.802163 62.713381 lineto
116.784178 68.693254 lineto
122.766192 66.628774 lineto
129.346409 68.764443 lineto
135.328423 66.201640 lineto
141.310438 68.764443 lineto
147.292453 65.062616 lineto
153.274468 68.052553 lineto
159.256483 67.269474 lineto
164.640296 62.286247 lineto
170.622311 66.984719 lineto
176.604325 66.486396 lineto
182.586340 67.198286 lineto
188.568355 61.503168 lineto
195.148571 61.503168 lineto
201.130586 66.415207 lineto
206.514399 63.282892 lineto
211.898213 59.082743 lineto
217.880228 59.723444 lineto
224.460444 57.943720 lineto
231.040660 65.916884 lineto
237.620876 67.696608 lineto
243.602891 66.842341 lineto
249.584906 69.191577 lineto
256.165122 69.476332 lineto
261.548936 63.638837 lineto
267.530950 64.065971 lineto
273.512965 66.344018 lineto
279.494980 63.567648 lineto
285.476995 58.940365 lineto
291.459010 63.282892 lineto
297.441024 62.072680 lineto
304.021241 62.143869 lineto
309.405054 65.204994 lineto
315.387069 62.072680 lineto
320.770882 67.554230 lineto
327.351098 65.133805 lineto
332.734912 60.435334 lineto
339.315128 61.503168 lineto
344.698941 60.364145 lineto
350.680956 65.347372 lineto
356.662971 59.794633 lineto
362.644986 66.628774 lineto
368.627000 61.503168 lineto
374.609015 65.204994 lineto
380.591030 66.130451 lineto
386.573045 65.916884 lineto
392.555060 62.642192 lineto
398.537074 59.865822 lineto
404.519089 65.418561 lineto
410.501104 61.289601 lineto
416.483119 65.489750 lineto
422.465134 59.723444 lineto
427.848947 64.920239 lineto
433.830962 63.638837 lineto
439.214775 65.276183 lineto
445.794991 61.503168 lineto
451.178805 62.784570 lineto
457.160819 60.933656 lineto
463.142834 67.269474 lineto
466.133842 20.000000 lineto
466.133842 20.000000 lineto
466.133842 20.000000 lineto
463.142834 104.786060 lineto
457.160819 99.518077 lineto
451.178805 101.653746 lineto
445.794991 98.948565 lineto
439.214775 110.196422 lineto
433.830962 105.497950 lineto
427.848947 106.138651 lineto
422.465134 94.178904 lineto
416.483119 103.575848 lineto
410.501104 95.317928 lineto
404.519089 110.552367 lineto
398.537074 92.683936 lineto
392.555060 97.168841 lineto
386.573045 102.365635 lineto
380.591030 94.606038 lineto
374.609015 104.643682 lineto
368.627000 95.887439 lineto
362.644986 109.057398 lineto
356.662971 87.273574 lineto
350.680956 106.850540 lineto
344.698941 94.178904 lineto
339.315128 91.260157 lineto
332.734912 90.405889 lineto
327.351098 99.233321 lineto
320.770882 110.837123 lineto
315.387069 97.382408 lineto
309.405054 98.307864 lineto
304.021241 90.833023 lineto
297.441024 87.985464 lineto
291.459010 96.955274 lineto
285.476995 88.626165 lineto
279.494980 86.846441 lineto
273.512965 107.135296 lineto
267.530950 106.352218 lineto
261.548936 81.578457 lineto
256.165122 110.054044 lineto
249.584906 90.049944 lineto
243.602891 81.222512 lineto
237.620876 80.866567 lineto
231.040660 84.141260 lineto
224.460444 72.395080 lineto
217.880228 86.846441 lineto
211.898213 75.029072 lineto
206.514399 84.853149 lineto
201.130586 80.795378 lineto
195.148571 74.744316 lineto
188.568355 80.083489 lineto
182.586340 87.629519 lineto
176.604325 79.513977 lineto
170.622311 93.538204 lineto
164.640296 78.873276 lineto
159.256483 81.008945 lineto
153.274468 84.568394 lineto
147.292453 81.507268 lineto
141.310438 78.303764 lineto
135.328423 81.720835 lineto
129.346409 83.500559 lineto
122.766192 82.361536 lineto
116.784178 84.212449 lineto
110.802163 78.873276 lineto
104.820148 75.669773 lineto
99.436335 77.449497 lineto
93.454320 77.449497 lineto
87.472305 78.090198 lineto
81.490290 82.859858 lineto
75.508275 88.483787 lineto
69.526261 83.642937 lineto
62.946044 74.744316 lineto
56.964030 76.951174 lineto
50.982015 89.551621 lineto
45.000000 20.000000 lineto
closepath
gsave
0.800000 setgray
fill
grestore
stroke
45.000000 20.000000 moveto
45.000000 20.000000 lineto
50.982015 89.551621 lineto
56.964030 76.951174 lineto
62.946044 74.744316 lineto
69.526261 83.642937 lineto
75.508275 88.483787 lineto
81.490290 82.859858 lineto
87.472305 78.090198 lineto
93.454320 77.449497 lineto
99.436335 77.449497 lineto
104.820148 75.669773 lineto
110.802163 78.873276 lineto
116.784178 84.212449 lineto
122.766192 82.361536 lineto
129.346409 83.500559 lineto
135.328423 81.720835 lineto
141.310438 78.303764 lineto
147.292453 81.507268 lineto
153.274468 84.568394 lineto
159.256483 81.008945 lineto
164.640296 78.873276 lineto
170.622311 93.538204 lineto
176.604325 79.513977 lineto
182.586340 87.629519 lineto
188.568355 80.083489 lineto
195.148571 74.744316 lineto
201.130586 80.795378 lineto
206.514399 84.853149 lineto
211.898213 75.029072 lineto
217.880228 86.846441 lineto
224.460444 72.395080 lineto
231.040660 84.141260 lineto
237.620876 80.866567 lineto
243.602891 81.222512 lineto
249.584906 90.049944 lineto
256.165122 110.054044 lineto
261.548936 81.578457 lineto
267.530950 106.352218 lineto
273.512965 107.135296 lineto
279.494980 86.846441 lineto
285.476995 88.626165 lineto
291.459010 96.955274 lineto
297.441024 87.985464 lineto
304.021241 90.833023 lineto
309.405054 98.307864 lineto
315.387069 97.382408 lineto
320.770882 110.837123 lineto
327.351098 99.233321 lineto
332.734912 90.405889 lineto
339.315128 91.260157 lineto
344.698941 94.178904 lineto
350.680956 106.850540 lineto
356.662971 87.273574 lineto
362.644986 109.057398 lineto
368.627000 95.887439 lineto
374.609015 104.643682 lineto
380.591030 94.606038 lineto
386.573045 102.365635 lineto
392.555060 97.168841 lineto
398.537074 92.683936 lineto
404.519089 110.552367 lineto
410.501104 95.317928 lineto
416.483119 103.575848 lineto
422.465134 94.178904 lineto
427.848947 106.138651 lineto
433.830962 105.497950 lineto
439.214775 110.196422 lineto
445.794991 98.948565 lineto
451.178805 101.653746 lineto
457.160819 99.518077 lineto
463.142834 104.786060 lineto
466.133842 20.000000 lineto
466.133842 20.000000 lineto
466.133842 20.000000 lineto
463.142834 395.948938 lineto
457.160819 390.680954 lineto
451.178805 392.816623 lineto
445.794991 390.111442 lineto
439.214775 401.359299 lineto
433.830962 396.660827 lineto
427.848947 397.301528 lineto
422.465134 385.341782 lineto
416.483119 394.738725 lineto
410.501104 386.480805 lineto
404.519089 401.715244 lineto
398.537074 383.846813 lineto
392.555060 388.331718 lineto
386.573045 393.528513 lineto
380.591030 385.768915 lineto
374.609015 395.806560 lineto
368.627000 387.050317 lineto
362.644986 400.220276 lineto
356.662971 378.436452 lineto
350.680956 398.013418 lineto
344.698941 385.341782 lineto
339.315128 382.423034 lineto
332.734912 381.568766 lineto
327.351098 390.396198 lineto
320.770882 402.000000 lineto
315.387069 388.545285 lineto
309.405054 389.470742 lineto
304.021241 381.995900 lineto
297.441024 379.148341 lineto
291.459010 388.118151 lineto
285.476995 379.789042 lineto
279.494980 378.009318 lineto
273.512965 398.298174 lineto
267.530950 397.515095 lineto
261.548936 372.741334 lineto
256.165122 401.216921 lineto
249.584906 381.212821 lineto
243.602891 372.385389 lineto
237.620876 372.029445 lineto
231.040660 375.304137 lineto
224.460444 363.557958 lineto
217.880228 378.009318 lineto
211.898213 366.191949 lineto
206.514399 376.016027 lineto
201.130586 371.958256 lineto
195.148571 365.907193 lineto
188.568355 371.246366 lineto
182.586340 378.792397 lineto
176.604325 370.676854 lineto
170.622311 384.701081 lineto
164.640296 370.036154 lineto
159.256483 372.171823 lineto
153.274468 375.731271 lineto
147.292453 372.670145 lineto
141.310438 369.466642 lineto
135.328423 372.883712 lineto
129.346409 374.663436 lineto
122.766192 373.524413 lineto
116.784178 375.375326 lineto
110.802163 370.036154 lineto
104.820148 366.832650 lineto
99.436335 368.612374 lineto
93.454320 368.612374 lineto
87.472305 369.253075 lineto
81.490290 374.022736 lineto
75.508275 379.646664 lineto
69.526261 374.805814 lineto
62.946044 365.907193 lineto
56.964030 368.114051 lineto
50.982015 380.714499 lineto
45.000000 20.000000 lineto
closepath
gsave
0.000000 setgray
fill
grestore
stroke
showpage
